{
    "KPlugin": {
        "Category": "Window Management",
        "Description": "Allows you to overview virtual desktops and windows",
        "EnabledByDefault": true,
        "Id": "overview",
        "License": "GPL",
        "Name": "Overview"
    },
    "X-KDE-ConfigModule": "kwin_overview_config",
    "X-KWin-Border-Activate": true,
    "org.kde.kwin.effect": {
        "video": "https://files.kde.org/plasma/kwin/effect-videos/present_windows.mp4"
    }
}
