{
    "KPlugin": {
        "Authors": [
            {
                "Email": "mgraesslin@kde.org",
                "Name": "Martin Gräßlin"
            }
        ],
        "Category": "Appearance",
        "Description": "Animation for a window going to and leaving full screen mode",
        "Description[ar]": "الرسوم المتحركة لنافذة تنتقل إلى وضع ملء الشاشة أوتغادرها",
        "Description[az]": "Tam ekran rejiminə keçid və ondan çıxış pəncərəsi animasiyası",
        "Description[bg]": "Анимация за прозорец при влизане и излизане от режим на цял екран",
        "Description[ca@valencia]": "Animació per a una finestra que entra o abandona el mode de pantalla completa",
        "Description[ca]": "Animació per a una finestra que entra o abandona el mode de pantalla completa",
        "Description[de]": "Animation für ein Fenster beim Ein- und Ausschalten des Vollbildmodus",
        "Description[en_GB]": "Animation for a window going to and leaving full screen mode",
        "Description[es]": "Animación para una ventana que entra en el modo de pantalla completa o sale de él",
        "Description[et]": "Täisekraanirežiimi mineva või sealt väljuva akna animatsioon",
        "Description[eu]": "Pantaila-osoko modutik/modura aldatzen den leiho baten animazioa",
        "Description[fi]": "Animointi ikkunalle, joka siirtyy tai poistuu koko näytön tilasta",
        "Description[fr]": "Animation pour une fenêtre basculant vers ou sortant du mode « Plein écran »",
        "Description[hu]": "Ablakanimáció teljes képernyős módba be- és kilépéskor",
        "Description[ia]": "Animation per un fenestra va a e abandona modo de schermo plen",
        "Description[id]": "Animasikan jendela yang menuju dan meninggalkan mode layar penuh",
        "Description[it]": "Animazione per una finestra che entra e esce dalla modalità a schermo intero",
        "Description[ko]": "창이 전체 화면 모드로 진입하거나 벗어날 때 사용할 애니메이션",
        "Description[lt]": "Lango perėjimo į visą ekraną ir išėjimo iš viso ekrano animacija",
        "Description[nl]": "Animatie voor een venster dat gaat naar volledig scherm en deze verlaat",
        "Description[nn]": "Animasjon for vindauge som går til eller frå fullskjermsmodus",
        "Description[pl]": "Animacja dla okna wchodzącego i wychodzącego z trybu pełnego ekranu",
        "Description[pt]": "Animação para uma janela que vai entrar/sair do modo de ecrã completo",
        "Description[pt_BR]": "Animação para uma janela indo e saindo do modo de tela cheia",
        "Description[ro]": "Animație pentru o fereastră ce intră sau iese din regim de ecran complet",
        "Description[ru]": "Анимация для окна, которое будет переключено в полноэкранный режим или из него",
        "Description[sk]": "Animácia pre okno smerujúce do a opúšťajúce režim celej obrazovky",
        "Description[sl]": "Animacija za razpenjanje ali zapuščanje čez zaslon razpetega okna",
        "Description[sv]": "Animering för ett fönster till och från fullskärmsläge",
        "Description[ta]": "சாளரம் முழுத்திரை முறையில் நுழைவதற்கும் அம்முறையிலிருந்து வெளியேறுவதற்குமான அசைவூட்டம்",
        "Description[tr]": "Tam ekran kipine giren/çıkan bir pencere için canlandırma",
        "Description[uk]": "Анімація для вікон під час входу до повноекранного режиму і виходу з нього",
        "Description[vi]": "Hiệu ứng động cho một cửa sổ đang đi vào và rời khỏi chế độ toàn màn hình",
        "Description[x-test]": "xxAnimation for a window going to and leaving full screen modexx",
        "Description[zh_CN]": "窗口进入/退出全屏模式时呈现过渡动效",
        "Description[zh_TW]": "視窗進入或離開全螢幕的動畫",
        "EnabledByDefault": true,
        "Icon": "preferences-system-windows-effect-fullscreen",
        "Id": "kwin4_effect_fullscreen",
        "License": "GPL",
        "Name": "Full Screen",
        "Name[ar]": "ملء الشاشة",
        "Name[az]": "Tam Ekran",
        "Name[bg]": "Цял екран",
        "Name[ca@valencia]": "Pantalla completa",
        "Name[ca]": "Pantalla completa",
        "Name[cs]": "Celá obrazovka",
        "Name[da]": "Fuldskærm",
        "Name[de]": "Vollbild",
        "Name[en_GB]": "Full Screen",
        "Name[es]": "Pantalla completa",
        "Name[et]": "Täisekraan",
        "Name[eu]": "Pantaila-betea",
        "Name[fi]": "Koko näyttö",
        "Name[fr]": "Plein écran",
        "Name[hu]": "Teljes képernyő",
        "Name[ia]": "Schermo plen",
        "Name[id]": "Full Screen",
        "Name[it]": "Schermo intero",
        "Name[ka]": "სრულეკრანიანი რეჟიმი",
        "Name[ko]": "전체 화면",
        "Name[lt]": "Visas ekranas",
        "Name[nl]": "Volledig scherm",
        "Name[nn]": "Fullskjerm",
        "Name[pa]": "ਪੂਰੀ ਸਕਰੀਨ",
        "Name[pl]": "Pełny ekran",
        "Name[pt]": "Ecrã Completo",
        "Name[pt_BR]": "Tela inteira",
        "Name[ro]": "Ecran complet",
        "Name[ru]": "Полноэкранный режим",
        "Name[sk]": "Celá obrazovka",
        "Name[sl]": "Celotni zaslon",
        "Name[sv]": "Fullskärm",
        "Name[ta]": "முழுத்திரை",
        "Name[tr]": "Tam Ekran",
        "Name[uk]": "Повноекранний режим",
        "Name[vi]": "Toàn màn hình",
        "Name[x-test]": "xxFull Screenxx",
        "Name[zh_CN]": "全屏模式过渡动画",
        "Name[zh_TW]": "全螢幕",
        "ServiceTypes": [
            "KWin/Effect"
        ],
        "Version": "1",
        "Website": ""
    },
    "X-KDE-Ordering": "60",
    "X-KDE-ParentApp": "",
    "X-Plasma-API": "javascript",
    "X-Plasma-MainScript": "code/fullscreen.js"
}
