{
    "KPlugin": {
        "Authors": [
            {
                "Email": "lmurray@undefinedfire.com, mgraesslin@kde.org",
                "Name": "Lucas Murray, Martin Gräßlin"
            }
        ],
        "Category": "Virtual Desktop Switching Animation",
        "Description": "Fade between virtual desktops when switching between them",
        "Description[ar]": "يجعل أسطح المكتب تتلاشى عند التبيديل بينها",
        "Description[az]": "Başqa İş masasına keçdiksə fon şəklinin tədricən dəyişilməsi",
        "Description[bg]": "Избледняване при превключване между работните плотове",
        "Description[bs]": "Jedna virtuelna površ utapa se u drugu pri prebacivanju",
        "Description[ca@valencia]": "Esvaïx entre els escriptoris virtuals quan es canvia entre ells",
        "Description[ca]": "Esvaeix entre els escriptoris virtuals quan es commuta entre ells",
        "Description[cs]": "Plochy při přepínání mění intenzitu",
        "Description[da]": "Fade ud og ind mellem virtuelle skrivebord ved skift mellem dem",
        "Description[de]": "Wechseln der virtuellen Arbeitsfläche durch Aus- und Einblenden der Arbeitsfläche.",
        "Description[el]": "Εναλλαγή μεταξύ των επιφανειών εργασίας με ομαλό σβήσιμο",
        "Description[en_GB]": "Fade between virtual desktops when switching between them",
        "Description[eo]": "Disvolvi inter virtualaj labortabloj kiam ŝaltas inter ili.",
        "Description[es]": "Difumina al cambiar entre escritorios virtuales",
        "Description[et]": "Hääbumisefekt ühelt virtuaalselt töölaualt teisele lülitudes",
        "Description[eu]": "Uneko mahaigaina desagerrarazi mahagain batetik bestera aldatzean",
        "Description[fi]": "Häivytys virtuaalityöpöytien välillä niitä vaihdettaessa",
        "Description[fr]": "Effectue un fondu entre les bureaux virtuels lors des changements de bureau",
        "Description[fy]": "By it wikseljen tusken firuele buroblêden in ferfaging dwaan",
        "Description[ga]": "Céimnigh idir deasca fíorúla agus ag malairt eatarthu",
        "Description[gl]": "Emprega un efecto de esvaemento ao cambiar de escritorio",
        "Description[he]": "חשיפה והיעלמות בין שולחנות עבודה וירטואליים במעבר ביניהם",
        "Description[hr]": "Efekt preklapanja radnih površina prilikom promjene među njima",
        "Description[hu]": "Asztalváltáskor a régi asztal elhalványul, az új felerősödik",
        "Description[ia]": "Pallidi inter scriptorio virtuales quando il commuta intra los",
        "Description[id]": "Lesap di antara desktop virtual ketika bertukar di antara mereka",
        "Description[is]": "Þynnir saman sýndarkjáborðum þegar skipt er á milli þeirra",
        "Description[it]": "Passa da desktop virtuale all'altro con una dissolvenza",
        "Description[ja]": "仮想デスクトップの切り替えにフェード効果をかけます",
        "Description[kk]": "Виртуалды үстелді ауыстыруды біртіндеп көрсету",
        "Description[km]": "ស្រមោល​រវាង​ផ្ទៃតុ​និម្មិត នៅពេល​ប្ដូរ​រវាង​ពួកវា",
        "Description[kn]": "ವಾಸ್ತವಪ್ರಾಯ(ವರ್ಚುವಲ್) ಗಣಕತೆರೆಗಳ ನಡುವೆ ಬದಲಾಯಿಸುವಾಗ ಮಬ್ಬಾಗಿಸು",
        "Description[ko]": "가상 바탕 화면 사이를 전환할 때 페이드 효과를 사용합니다",
        "Description[lt]": "Išblukinti, perjungiant virtualiuosius darbalaukius",
        "Description[lv]": "Plūstoši pārslēgties starp vituālajām darbvirsmām",
        "Description[ml]": "വെര്‍ച്വല്‍ പണിയിടങ്ങള്‍ക്കിടക്ക് സ്വിച്ച് ചെയ്യുമ്പോള്‍ മങ്ങിപ്പോകുന്നു.",
        "Description[mr]": "आभासी डेस्कटॉप बदलताना फीका करा",
        "Description[nb]": "Ton ut/inn mellom virtuelle skrivebord når det byttes mellom dem",
        "Description[nds]": "Bi't Wesseln de Schriefdischen överenanner blennen",
        "Description[nl]": "Laat virtuele bureaubladen vervagen en opkomen bij het wisselen",
        "Description[nn]": "Ton inn og ut ved veksling mellom virtuelle skrivebord",
        "Description[pa]": "ਜਦੋਂ ਵੁਰਚੁਅਲ ਡੈਸਕਟਾਪ ਵਿੱਚ ਬਦਲਣਾ ਹੋਵੇ ਤਾਂ ਉਹਨਾਂ ਨੂੰ ਫਿੱਕਾ ਕਰੋ",
        "Description[pl]": "Przenika pulpity wirtualne przy ich przełączaniu",
        "Description[pt]": "Desvanece entre os ecrãs virtuais, ao circular entre eles",
        "Description[pt_BR]": "Desaparece entre as áreas de trabalho virtuais, ao trocar entre elas",
        "Description[ro]": "Estompare între birourile virtuale la schimbarea între ele",
        "Description[ru]": "Постепенная смена изображения при переключении на другой рабочий стол",
        "Description[si]": "අතත්‍ය වැඩතල අතර මාරුවීමේදී ඒවා අතර විවර්ණය කරන්න",
        "Description[sk]": "Efekt zoslabenia pri prepínaní virtuálnych plôch",
        "Description[sl]": "Ob preklopu med namizjema postopoma skrije prejšnjega in postopoma prikaže novega",
        "Description[sr@ijekavian]": "Једна виртуелна површ утапа се у другу при пребацивању",
        "Description[sr@ijekavianlatin]": "Jedna virtuelna površ utapa se u drugu pri prebacivanju",
        "Description[sr@latin]": "Jedna virtuelna površ utapa se u drugu pri prebacivanju",
        "Description[sr]": "Једна виртуелна површ утапа се у другу при пребацивању",
        "Description[sv]": "Tona mellan virtuella skrivbord vid byte mellan dem",
        "Description[ta]": "பணிமேடைகளுக்கிடைய தாவும்போது அவற்றை மங்கசெய்து மாற்றும்",
        "Description[th]": "ปรับพื้นที่ทำงานแบบค่อย ๆ ชัด/ค่อย ๆ จางหายเมื่อมีการสลับพื้นที่ทำงาน",
        "Description[tr]": "Sanal masaüstleri arasında geçiş yapılırken kaybolma efektini kullan",
        "Description[ug]": "مەۋھۇم ئۈستەلئۈستى ئارىسىدا ئالماشتۇرغاندا سۇسلاشتۇرۇش ئۈنۈمىنى كۆرسەت",
        "Description[uk]": "Затемнення перед час перемикання між віртуальними стільницями",
        "Description[vi]": "Làm mờ dần giữa các bàn làm việc ảo khi chuyển đổi giữa chúng",
        "Description[wa]": "Fwait on fondou etur sicribannes cwand on passe d' onk a èn ôte",
        "Description[x-test]": "xxFade between virtual desktops when switching between themxx",
        "Description[zh_CN]": "在虚拟桌面间切换时呈现渐入渐出动效",
        "Description[zh_TW]": "在虛擬桌面間切換時使用淡出/淡入效果",
        "EnabledByDefault": false,
        "Icon": "preferences-system-windows-effect-fadedesktop",
        "Id": "kwin4_effect_fadedesktop",
        "License": "GPL",
        "Name": "Fade Desktop",
        "Name[ar]": "تلاشِ سطح المكتب",
        "Name[az]": "İş masasının rəvan dəyişimi",
        "Name[bg]": "Избледняване на работния плот",
        "Name[bs]": "Utapanje površi",
        "Name[ca@valencia]": "Esvaïment de l'escriptori",
        "Name[ca]": "Esvaïment de l'escriptori",
        "Name[cs]": "Zeslabit plochu",
        "Name[csb]": "Pùlt fade",
        "Name[da]": "Lad skrivebord fade ud",
        "Name[de]": "Arbeitsfläche aus-/einblenden",
        "Name[el]": "Ομαλή εμφάνιση επιφάνειας εργασίας",
        "Name[en_GB]": "Fade Desktop",
        "Name[eo]": "Labortablo Dissolvo",
        "Name[es]": "Difuminar escritorio",
        "Name[et]": "Töölaua hääbumine",
        "Name[eu]": "Mahaigaina desagertzea",
        "Name[fi]": "Työpöydän häivytys",
        "Name[fr]": "Effectue un fondu du bureau",
        "Name[fy]": "Buroblêd ferfagje",
        "Name[ga]": "Céimnigh an Deasc",
        "Name[gl]": "Esvaer o escritorio",
        "Name[gu]": "ડેસ્કટોપ ઝાંખુ કરો",
        "Name[he]": "חשיפה והיעלמות בין שולחנות עבודה",
        "Name[hr]": "Preklapanje radnih površina",
        "Name[hu]": "Elhalványuló váltás",
        "Name[ia]": "Pallidi scriptorio",
        "Name[id]": "Fade Desktop",
        "Name[is]": "Þynna út skjáborð",
        "Name[it]": "Dissolvenza dei desktop",
        "Name[ja]": "デスクトップのフェード",
        "Name[kk]": "Біртіндеп ауысу",
        "Name[km]": "ធ្វើ​ឲ្យ​ផ្ទៃតុលេច​បន្តិចម្ដងៗ",
        "Name[kn]": "ಗಣಕತೆರೆಯನ್ನು ಮಬ್ಬಾಗಿಸು",
        "Name[ko]": "바탕 화면 페이드",
        "Name[lt]": "Pamažu atsirandantis/išnykstantis darbalaukis",
        "Name[lv]": "Sapludināt darbvirsmu",
        "Name[mai]": "Fade Desktop",
        "Name[ml]": "പണിയിടം മങ്ങി പോകുക",
        "Name[mr]": "फीका डेस्कटॉप",
        "Name[nb]": "Ton ut skrivebord",
        "Name[nds]": "Schriefdisch överblennen",
        "Name[nl]": "Bureaublad op laten komen",
        "Name[nn]": "Ton inn/ut skrivebord",
        "Name[pa]": "ਡੈਸਕਟਾਪ ਫਿੱਕਾ",
        "Name[pl]": "Przenikanie pulpitów",
        "Name[pt]": "Desvanecer o Ecrã",
        "Name[pt_BR]": "Desaparecimento da área de trabalho",
        "Name[ro]": "Estompare birou",
        "Name[ru]": "Плавная смена рабочих столов",
        "Name[si]": "වැඩතලය විවර්ණ කිරීම",
        "Name[sk]": "Zoslabiť plochu",
        "Name[sl]": "Pojemanje namizja",
        "Name[sr@ijekavian]": "Утапање површи",
        "Name[sr@ijekavianlatin]": "Utapanje površi",
        "Name[sr@latin]": "Utapanje površi",
        "Name[sr]": "Утапање површи",
        "Name[sv]": "Tona skrivbord",
        "Name[ta]": "பணிமேடையை மங்க செய்",
        "Name[th]": "ปรับพื้นที่ทำงานแบบค่อย ๆ ชัด/ค่อย ๆ จางหาย",
        "Name[tr]": "Masaüstü Kaybolması",
        "Name[ug]": "ئۈستەلئۈستىنى سۇسلاشتۇر",
        "Name[uk]": "Затемнення стільниці",
        "Name[vi]": "Làm mờ dần bàn làm việc",
        "Name[wa]": "Fondou do scribanne",
        "Name[x-test]": "xxFade Desktopxx",
        "Name[zh_CN]": "渐入渐出",
        "Name[zh_TW]": "淡出淡入桌面",
        "ServiceTypes": [
            "KWin/Effect"
        ],
        "Version": "0.2.0"
    },
    "X-KDE-Ordering": "50",
    "X-KWin-Exclusive-Category": "desktop-animations",
    "X-KWin-Video-Url": "https://files.kde.org/plasma/kwin/effect-videos/fade_desktop.ogv",
    "X-Plasma-API": "javascript",
    "X-Plasma-MainScript": "code/main.js"
}
