{
    "KPlugin": {
        "Authors": [
            {
                "Email": "davidedmundson@kde.org",
                "Name": "David Edmundson"
            }
        ],
        "Category": "Appearance",
        "Description": "Keep the desktop background alive during logout until the end",
        "Description[ar]": "حافظ على خلفية سطح المكتب حتى نهاية عملية الخروج",
        "Description[az]": "Seansdan çıxışda sona qədər İş masası fon şəklinin saxlanılması",
        "Description[bg]": "Показване на фона на работния плот до края на излизането от сесия",
        "Description[ca@valencia]": "Manté viu el fons de l'escriptori durant l'eixida de la sessió fins al final",
        "Description[ca]": "Manté viu el fons de l'escriptori durant la sortida de la sessió fins al final",
        "Description[da]": "Hold skrivebordsbaggrunden i live under log ud helt til sidst",
        "Description[de]": "Beim Abmelden den Hintergrund der Arbeitsfläche bis zum Schluss behalten",
        "Description[en_GB]": "Keep the desktop background alive during logout until the end",
        "Description[es]": "Mantener el fondo del escritorio activo durante el cierre de sesión hasta el final",
        "Description[et]": "Töölaua taust hoitakse väljalogimisel alles kuni lõpuni",
        "Description[eu]": "Eutsi mahaigaineko atzeko-planoa bizirik saio-ixtean bukaera arte",
        "Description[fi]": "Pidä työpöydän tausta käynnissä aina uloskirjautumisen loppuun",
        "Description[fr]": "Conservez l'arrière plan du bureau visible jusqu'à la fin de la déconnexion",
        "Description[gl]": "Manter vivo o fondo de escritorio durante a saída ata o final",
        "Description[hu]": "Az asztalháttér megmarad kijelentkezés közben a legvégéig",
        "Description[ia]": "Mantene le fundo de criptorio vive durante le clausura de session usque le fin",
        "Description[id]": "Jaga latarbelakang desktop tetap nyala selama logout sampai akhir",
        "Description[it]": "Mantieni attivo lo sfondo del desktop durante la chiusura della sessione fino alla fine",
        "Description[ko]": "로그아웃이 끝날 때까지 데스크톱 배경 그림 유지",
        "Description[lt]": "Atsijungiant, išlaikyti darbalaukio foną reaguojantį iki pat galo",
        "Description[nl]": "De achtergrond van het bureaublad tot het einde levend houden gedurende afmelden",
        "Description[nn]": "Hald skrivebordsbakgrunnen i live heilt til utlogginga er fullført",
        "Description[pl]": "Utrzymuj tło pulpitu podczas wylogowania, aż do końca",
        "Description[pt]": "Manter o fundo do ecrã activo durante a saída da sessão até ao fim",
        "Description[pt_BR]": "Mantém ativo o fundo da área de trabalho até o fim do fechamento da sessão",
        "Description[ro]": "Păstrează viu fundalul biroului în timpul ieșirii din sesiune până la capăt",
        "Description[ru]": "Сохранение фона рабочего стола до окончания завершения сеанса",
        "Description[sk]": "Ponechať pozadie plochy aktívne počas odhlásenia do skončenia",
        "Description[sl]": "Pusti ozadje namizja živo ob odjavi do konca",
        "Description[sv]": "Behåll skrivbordets bakgrund levande under utloggning till slutet",
        "Description[ta]": "வெளியேறும்போது கடைசிவரை பணிமேடையின் பின்புல படத்தை வைத்திருக்கும்",
        "Description[tr]": "Çıkış işlemi bitene dek masaüstü arka planını canlı tut",
        "Description[uk]": "Не вимикати тло стільниці до кінця процедури виходу із облікового запису",
        "Description[vi]": "Giữ nền bàn làm việc hiện cho đến cuối quá trình đăng xuất",
        "Description[x-test]": "xxKeep the desktop background alive during logout until the endxx",
        "Description[zh_CN]": "注销时继续显示桌面背景，直到完全退出会话",
        "Description[zh_TW]": "直到登出完成前皆保留桌面背景圖片",
        "EnabledByDefault": true,
        "Icon": "preferences-system-windows-effect-logout",
        "Id": "kwin4_effect_sessionquit",
        "License": "GPL",
        "Name": "Session Quit",
        "Name[ar]": "انتهاء الجلسة",
        "Name[az]": "Sesiyadan çıxış",
        "Name[bg]": "Изход от сесията",
        "Name[ca@valencia]": "Eixida de la sessió",
        "Name[ca]": "Sortida de la sessió",
        "Name[cs]": "Sezení bylo ukončeno",
        "Name[da]": "Afslutning af session",
        "Name[de]": "Sitzungsende",
        "Name[en_GB]": "Session Quit",
        "Name[es]": "Cierre de sesión",
        "Name[et]": "Seansist väljumine",
        "Name[eu]": "Saiotik irtetea",
        "Name[fi]": "Istunnon lopetus",
        "Name[fr]": "Fin de session",
        "Name[gl]": "Saída de sesión",
        "Name[hu]": "Kilépés a munkamenetből",
        "Name[ia]": "Abandona session",
        "Name[id]": "Sesi Berhenti",
        "Name[it]": "Chiusura sessione",
        "Name[ka]": "სესიიდან გასვლა",
        "Name[ko]": "세션 종료",
        "Name[lt]": "Seanso baigimas",
        "Name[nl]": "Afsluiten van sessie",
        "Name[nn]": "Avslutt økt",
        "Name[pl]": "Opuszczenie sesji",
        "Name[pt]": "Saída da Sessão",
        "Name[pt_BR]": "Saída da sessão",
        "Name[ro]": "Părăsirea sesiunii",
        "Name[ru]": "Завершение сеанса",
        "Name[sk]": "Ukončenie sedenia",
        "Name[sl]": "Zapri sejo",
        "Name[sv]": "Avsluta session",
        "Name[ta]": "அமர்வு வெளியேற்றம்",
        "Name[tr]": "Oturum Çıkışı",
        "Name[uk]": "Вихід з сеансу",
        "Name[vi]": "Thoát phiên",
        "Name[x-test]": "xxSession Quitxx",
        "Name[zh_CN]": "会话退出优化",
        "Name[zh_TW]": "離開工作階段",
        "ServiceTypes": [
            "KWin/Effect"
        ],
        "Version": "0.2.0"
    },
    "X-KDE-Ordering": "40",
    "X-KWin-Internal": "true",
    "X-Plasma-API": "javascript",
    "X-Plasma-MainScript": "code/main.js"
}
